%YAML 1.1
%TAG !u! tag:unity3d.com,2011:
--- !u!221 &22100000
AnimatorOverrideController:
  m_ObjectHideFlags: 0
  m_CorrespondingSourceObject: {fileID: 0}
  m_PrefabInstance: {fileID: 0}
  m_PrefabAsset: {fileID: 0}
  m_Name: Undead2
  m_Controller: {fileID: 9100000, guid: 507aa19bad1823a4abcf90726ca7737e, type: 2}
  m_Clips:
  - m_OriginalClip: {fileID: 7400000, guid: 228a583631a40dd418c5d384b36cb323, type: 2}
    m_OverrideClip: {fileID: 7400000, guid: 26759efa1c564214facb5aad0ade7190, type: 2}
  - m_OriginalClip: {fileID: 7400000, guid: 640bb862aa932d64f90869dfaa4be75f, type: 2}
    m_OverrideClip: {fileID: 7400000, guid: 9aa155d66ed24944e885c856109b0c20, type: 2}
  - m_OriginalClip: {fileID: 7400000, guid: 3765c92c84551204599f92e4fdf20412, type: 2}
    m_OverrideClip: {fileID: 7400000, guid: a67ccf8e2acffee4086d956f0377aacf, type: 2}
  - m_OriginalClip: {fileID: 7400000, guid: f01112b053bd2754d8847e246c55e703, type: 2}
    m_OverrideClip: {fileID: 7400000, guid: ff0f245e4fcac504a8cd88629bc6a8d3, type: 2}
  - m_OriginalClip: {fileID: 7400000, guid: d5ec48226271d794aa5e8cbb2ffb4d70, type: 2}
    m_OverrideClip: {fileID: 7400000, guid: a7be49149a32f114b8bc0963d3e95d89, type: 2}
