%YAML 1.1
%TAG !u! tag:unity3d.com,2011:
--- !u!21 &2100000
Material:
  serializedVersion: 8
  m_ObjectHideFlags: 0
  m_CorrespondingSourceObject: {fileID: 0}
  m_PrefabInstance: {fileID: 0}
  m_PrefabAsset: {fileID: 0}
  m_Name: Body
  m_Shader: {fileID: 4800000, guid: 11c3ef15b99017a42843980ca9ed079c, type: 3}
  m_ValidKeywords: []
  m_InvalidKeywords: []
  m_LightmapFlags: 4
  m_EnableInstancingVariants: 0
  m_DoubleSidedGI: 0
  m_CustomRenderQueue: -1
  stringTagMap: {}
  disabledShaderPasses: []
  m_SavedProperties:
    serializedVersion: 3
    m_TexEnvs:
    - _BumpMap:
        m_Texture: {fileID: 0}
        m_Scale: {x: 1, y: 1}
        m_Offset: {x: 0, y: 0}
    - _DetailAlbedoMap:
        m_Texture: {fileID: 0}
        m_Scale: {x: 1, y: 1}
        m_Offset: {x: 0, y: 0}
    - _DetailMask:
        m_Texture: {fileID: 0}
        m_Scale: {x: 1, y: 1}
        m_Offset: {x: 0, y: 0}
    - _DetailNormalMap:
        m_Texture: {fileID: 0}
        m_Scale: {x: 1, y: 1}
        m_Offset: {x: 0, y: 0}
    - _EmissionMap:
        m_Texture: {fileID: 0}
        m_Scale: {x: 1, y: 1}
        m_Offset: {x: 0, y: 0}
    - _FallOffColorMap:
        m_Texture: {fileID: 0}
        m_Scale: {x: 1, y: 1}
        m_Offset: {x: 0, y: 0}
    - _FlowTex:
        m_Texture: {fileID: 0}
        m_Scale: {x: 1, y: 1}
        m_Offset: {x: 0, y: 0}
    - _MainTex:
        m_Texture: {fileID: 2800000, guid: 2b02d57f2391f8444aea3a3517b97427, type: 3}
        m_Scale: {x: 1, y: 1}
        m_Offset: {x: 0, y: 0}
    - _MaskControlTex:
        m_Texture: {fileID: 0}
        m_Scale: {x: 1, y: 1}
        m_Offset: {x: 0, y: 0}
    - _MetallicGlossMap:
        m_Texture: {fileID: 0}
        m_Scale: {x: 1, y: 1}
        m_Offset: {x: 0, y: 0}
    - _NormalTex:
        m_Texture: {fileID: 0}
        m_Scale: {x: 1, y: 1}
        m_Offset: {x: 0, y: 0}
    - _OcclusionMap:
        m_Texture: {fileID: 0}
        m_Scale: {x: 1, y: 1}
        m_Offset: {x: 0, y: 0}
    - _ParallaxMap:
        m_Texture: {fileID: 0}
        m_Scale: {x: 1, y: 1}
        m_Offset: {x: 0, y: 0}
    - _RimLightSampler:
        m_Texture: {fileID: 0}
        m_Scale: {x: 1, y: 1}
        m_Offset: {x: 0, y: 0}
    - _TerrainHolesTexture:
        m_Texture: {fileID: 0}
        m_Scale: {x: 1, y: 1}
        m_Offset: {x: 0, y: 0}
    m_Ints: []
    m_Floats:
    - _Alpha: 0
    - _BumpScale: 1
    - _CullMode: 0
    - _Cutoff: 0.5
    - _DetailNormalMapScale: 1
    - _DstBlend: 0
    - _FallOffPower: 1
    - _FallOffstep: 2
    - _FresnelPower: 2
    - _GlossMapScale: 1
    - _Glossiness: 0.5
    - _GlossyReflections: 1
    - _Hit: 1
    - _IsHit: 0
    - _LerpS: 1
    - _Metallic: 0
    - _Mode: 0
    - _OccludePower: 1
    - _OcclusionStrength: 1
    - _OutLinePow: 1
    - _OutWidth: 1
    - _Parallax: 0.02
    - _ReflectionFresnel: 1
    - _ReflectionIntensity: 1
    - _ReflectionMetallic: 0
    - _ReflectionOpacity: 1
    - _RenderingMode: 0
    - _RimFresnel: 1
    - _RimIntensity: 1
    - _RimLightFresnel: 1
    - _RimLightIntensity: 1
    - _SmoothnessTextureChannel: 0
    - _SpecularHighlights: 1
    - _SpecularIntensity: 1
    - _SpecularPower: 1
    - _SrcBlend: 1
    - _UVSec: 0
    - _ZWrite: 1
    m_Colors:
    - _Color: {r: 1, g: 1, b: 1, a: 1}
    - _EmissionColor: {r: 0, g: 0, b: 0, a: 1}
    - _FallOffColor: {r: 1, g: 1, b: 1, a: 1}
    - _FlowColor: {r: 1, g: 1, b: 1, a: 1}
    - _FlowSpeed: {r: 1, g: 1, b: 1, a: 1}
    - _HitColor: {r: 1, g: 1, b: 1, a: 1}
    - _MainColor: {r: 1, g: 1, b: 1, a: 1}
    - _OccludeColor: {r: 0, g: 0, b: 1, a: 1}
    - _OutLineColor: {r: 0.35294116, g: 0.35294116, b: 0.35294116, a: 1}
    - _RimColor: {r: 1, g: 1, b: 1, a: 1}
    - _RimLightColor: {r: 1, g: 1, b: 1, a: 1}
    - _SpecularColor: {r: 1, g: 1, b: 1, a: 1}
  m_BuildTextureStacks: []
