%YAML 1.1
%TAG !u! tag:unity3d.com,2011:
--- !u!78 &1
TagManager:
  serializedVersion: 2
  tags:
  - Ground
  - HumanTower
  - ElfTower
  - OrcTower
  - UndeadTower
  - Human
  - Orc
  - Elf
  - Undead
  - ManKind
  layers:
  - Default
  - TransparentFX
  - Ignore Raycast
  - Human
  - Water
  - UI
  - Orc
  - Undead
  - Elf
  - 
  - 
  - 
  - 
  - 
  - 
  - 
  - 
  - 
  - 
  - 
  - 
  - 
  - 
  - 
  - 
  - 
  - 
  - 
  - 
  - 
  - 
  - 
  m_SortingLayers:
  - name: Default
    uniqueID: 0
    locked: 0
