%YAML 1.1
%TAG !u! tag:unity3d.com,2011:
--- !u!221 &22100000
AnimatorOverrideController:
  m_ObjectHideFlags: 0
  m_CorrespondingSourceObject: {fileID: 0}
  m_PrefabInstance: {fileID: 0}
  m_PrefabAsset: {fileID: 0}
  m_Name: Orc3
  m_Controller: {fileID: 9100000, guid: 507aa19bad1823a4abcf90726ca7737e, type: 2}
  m_Clips:
  - m_OriginalClip: {fileID: 7400000, guid: 228a583631a40dd418c5d384b36cb323, type: 2}
    m_OverrideClip: {fileID: 7400000, guid: c1b2eb8f8c9c5ae4989cffd6792e0da0, type: 2}
  - m_OriginalClip: {fileID: 7400000, guid: 640bb862aa932d64f90869dfaa4be75f, type: 2}
    m_OverrideClip: {fileID: 7400000, guid: e3dde95aba631a7479e3701cb5469ff3, type: 2}
  - m_OriginalClip: {fileID: 7400000, guid: f01112b053bd2754d8847e246c55e703, type: 2}
    m_OverrideClip: {fileID: 7400000, guid: c1213307119398f4ea66c57b6bc94714, type: 2}
  - m_OriginalClip: {fileID: 7400000, guid: d5ec48226271d794aa5e8cbb2ffb4d70, type: 2}
    m_OverrideClip: {fileID: 7400000, guid: b14da1795688aca49a7ecb75bd919dd3, type: 2}
